{
  "delimiter": ",",
  "dcm_cabecera_bac": {
    "num_registros": 500,
    "ruta": "",
    "columna_tipo": [
      {
        "nombre": "UN",
        "tipo": "int",
        "longitud": "4"
      },
      {
        "nombre": "CAMPANYA",
        "tipo": "date",
        "longitud": "4"
      },
      {
        "nombre": "ACCIO",
        "tipo": "string",
        "longitud": "4"
      },
      {
        "nombre": "TARGET",
        "tipo": "string",
        "longitud": "4"
      }
    ]
  },
  "dcm_detalle_bac": {
    "num_registros": 500,
    "ruta": "  ",
    "columna_tipo": [
      {
        "nombre": "UN",
        "tipo": "int",
        "longitud": "4"
      },
      {
        "nombre": "CAMPANYA",
        "tipo": "string",
        "longitud": "4"
      },
      {
        "nombre": "ACCIO",
        "tipo": "date",
        "longitud": "4"
      },
      {
        "nombre": "SEQACCIO",
        "tipo": "int",
        "longitud": "4"
      }
    ]
  }
}